20 10
####################
#................<.#
#..................#
#...###............#
#.....#............#
#.....#............#
#...###............#
#..................#
#..................#
####################
@uh 3 5 Mcm 17 5
1;95;0c
